module github.com/guanguans/skeleton

go 1.14

require (
	github.com/fatih/color v1.10.0 // indirect
	github.com/rakyll/gotest v0.0.6 // indirect
	golang.org/x/sys v0.0.0-20210423185535-09eb48e85fd7 // indirect
	gopkg.in/ffmt.v1 v1.5.6
)
